{
  "path": "",
  "title": "",
  "sections": [
    {
      "id": "get--api-v3-projects-",
      "title": "GET /api/v3/projects/",
      "content": "Retrieve a list of all the projects for the current logged in user.\nExample request:\n\nBashPython$ curl -H \"Authorization: Token <token>\" https://readthedocs.org/api/v3/projects/\n\n\nimport requests\nURL = 'https://readthedocs.org/api/v3/projects/'\nTOKEN = '<token>'\nHEADERS = {'Authorization': f'token {TOKEN}'}\nresponse = requests.get(URL, headers=HEADERS)\nprint(response.json())\n\n\n\nExample response:\n{\n    \"count\": 25,\n    \"next\": \"/api/v3/projects/?limit=10&offset=10\",\n    \"previous\": null,\n    \"results\": [{\n        \"id\": 12345,\n        \"name\": \"Pip\",\n        \"slug\": \"pip\",\n        \"created\": \"2010-10-23T18:12:31+00:00\",\n        \"modified\": \"2018-12-11T07:21:11+00:00\",\n        \"language\": {\n            \"code\": \"en\",\n            \"name\": \"English\"\n        },\n        \"programming_language\": {\n            \"code\": \"py\",\n            \"name\": \"Python\"\n        },\n        \"repository\": {\n            \"url\": \"https://github.com/pypa/pip\",\n            \"type\": \"git\"\n        },\n        \"default_version\": \"stable\",\n        \"default_branch\": \"master\",\n        \"subproject_of\": null,\n        \"translation_of\": null,\n        \"urls\": {\n            \"documentation\": \"http://pip.pypa.io/en/stable/\",\n            \"home\": \"https://pip.pypa.io/\"\n        },\n        \"tags\": [\n            \"distutils\",\n            \"easy_install\",\n            \"egg\",\n            \"setuptools\",\n            \"virtualenv\"\n        ],\n        \"users\": [\n            {\n                \"username\": \"dstufft\"\n            }\n        ],\n        \"active_versions\": {\n            \"stable\": \"{VERSION}\",\n            \"latest\": \"{VERSION}\",\n            \"19.0.2\": \"{VERSION}\"\n        },\n        \"_links\": {\n            \"_self\": \"/api/v3/projects/pip/\",\n            \"versions\": \"/api/v3/projects/pip/versions/\",\n            \"builds\": \"/api/v3/projects/pip/builds/\",\n            \"subprojects\": \"/api/v3/projects/pip/subprojects/\",\n            \"superproject\": \"/api/v3/projects/pip/superproject/\",\n            \"redirects\": \"/api/v3/projects/pip/redirects/\",\n            \"translations\": \"/api/v3/projects/pip/translations/\"\n        }\n    }]\n}\n\n\n\nQuery Parameters:\n\nname (string) \u2013 return projects with matching name\nslug (string) \u2013 return projects with matching slug\nlanguage (string) \u2013 language code as en, es, ru, etc.\nprogramming_language (string) \u2013 programming language code as py, js, etc.\n\n\n\nThe results in response is an array of project data,\nwhich is same as GET /api/v3/projects/(string:project_slug)/.\n\nNote\n\n\nRead the Docs for Business, also accepts\n\nQuery Parameters:\n\nexpand (string) \u2013 with organization and teams.\n\n\n\n\n"
    },
    {
      "id": "",
      "title": "Here is a nice reference",
      "content": ""
    }
  ],
  "domain_data": {}
}
